{
  "height": 1000,
  "width": 1000,
  "offset_x": 0,
  "offset_y": 0,
  "zoom": 1,
  "max_iter": 500,
  "complex": {
    "real": -0.8,
    "imag": 0.156
  },
  "colors": [
    "#000000",
    "#ffffff"
  ]
}
